trsm/Diagrama Tempo Exercício 1.vcd
$date
	03/17/17 21:19:32
$end
$version
	RIMS 2.7
$end
$timescale
	1 ms
$end
$scope module RIMS $end
$var wire 1 *TMR TIMER_ISR $end
$var wire 1 *A0 A0 $end
$var wire 1 *A1 A1 $end
$var wire 1 *A2 A2 $end
$var wire 1 *A3 A3 $end
$var wire 1 *A4 A4 $end
$var wire 1 *A5 A5 $end
$var wire 1 *A6 A6 $end
$var wire 1 *A7 A7 $end
$var wire 1 *B0 B0 $end
$var wire 1 *B1 B1 $end
$var wire 1 *B2 B2 $end
$var wire 1 *B3 B3 $end
$var wire 1 *B4 B4 $end
$var wire 1 *B5 B5 $end
$var wire 1 *B6 B6 $end
$var wire 1 *B7 B7 $end
$upscope $end
$enddefinitions $end

#0
$dumpvars
b0 *TMR
b0 *A0
b0 *A1
b0 *A2
b0 *A3
b0 *A4
b0 *A5
b0 *A6
b0 *A7
b0 *B0
b0 *B1
b0 *B2
b0 *B3
b0 *B4
b0 *B5
b0 *B6
b0 *B7
$end
#5
b0 *B0
#9
b0 *B0
#12
b0 *B0
#15
b0 *B0
#18
b0 *B0
#21
b0 *B0
#25
b0 *B0
#28
b0 *B0
#31
b0 *B0
#34
b0 *B0
#37
b0 *B0
#41
b0 *B0
#44
b0 *B0
#47
b0 *B0
#50
b0 *B0
#53
b0 *B0
#57
b0 *B0
#60
b0 *B0
#63
b0 *B0
#66
b0 *B0
#69
b0 *B0
#73
b0 *B0
#76
b0 *B0
#79
b0 *B0
#82
b0 *B0
#85
b0 *B0
#89
b0 *B0
#92
b0 *B0
#95
b0 *B0
#98
b0 *B0
#101
b0 *B0
#105
b0 *B0
#108
b0 *B0
#111
b0 *B0
#114
b0 *B0
#117
b0 *B0
#121
b0 *B0
#124
b0 *B0
#127
b0 *B0
#130
b0 *B0
#133
b0 *B0
#137
b0 *B0
#140
b0 *B0
#143
b0 *B0
#146
b0 *B0
#149
b0 *B0
#153
b0 *B0
#156
b0 *B0
#159
b0 *B0
#162
b0 *B0
#165
b0 *B0
#169
b0 *B0
#172
b0 *B0
#175
b0 *B0
#178
b0 *B0
#181
b0 *B0
#185
b0 *B0
#188
b0 *B0
#191
b0 *B0
#194
b0 *B0
#197
b0 *B0
#201
b0 *B0
#204
b0 *B0
#207
b0 *B0
#210
b0 *B0
#213
b0 *B0
#217
b0 *B0
#220
b0 *B0
#223
b0 *B0
#226
b0 *B0
#229
b0 *B0
#233
b0 *B0
#236
b0 *B0
#239
b0 *B0
#242
b0 *B0
#245
b0 *B0
#249
b0 *B0
#252
b0 *B0
#255
b0 *B0
#258
b0 *B0
#261
b0 *B0
#265
b0 *B0
#268
b0 *B0
#271
b0 *B0
#274
b0 *B0
#277
b0 *B0
#281
b0 *B0
#284
b0 *B0
#287
b0 *B0
#290
b0 *B0
#293
b0 *B0
#297
b0 *B0
#300
b0 *B0
#303
b0 *B0
#306
b0 *B0
#309
b0 *B0
#313
b0 *B0
#316
b0 *B0
#319
b0 *B0
#322
b0 *B0
#325
b0 *B0
#329
b0 *B0
#332
b0 *B0
#335
b0 *B0
#338
b0 *B0
#341
b0 *B0
#345
b0 *B0
#348
b0 *B0
#351
b0 *B0
#354
b0 *B0
#357
b0 *B0
#361
b0 *B0
#364
b0 *B0
#367
b0 *B0
#370
b0 *B0
#373
b0 *B0
#377
b0 *B0
#380
b0 *B0
#383
b0 *B0
#386
b0 *B0
#389
b0 *B0
#393
b0 *B0
#396
b0 *B0
#399
b0 *B0
#402
b0 *B0
#405
b0 *B0
#409
b0 *B0
#412
b0 *B0
#415
b0 *B0
#418
b0 *B0
#421
b0 *B0
#425
b0 *B0
#428
b0 *B0
#431
b0 *B0
#434
b0 *B0
#437
b0 *B0
#441
b0 *B0
#444
b0 *B0
#447
b0 *B0
#450
b0 *B0
#453
b0 *B0
#457
b0 *B0
#460
b0 *B0
#463
b0 *B0
#466
b0 *B0
#469
b0 *B0
#473
b0 *B0
#476
b0 *B0
#479
b0 *B0
#482
b0 *B0
#485
b0 *B0
#489
b0 *B0
#492
b0 *B0
#495
b0 *B0
#498
b0 *B0
#501
b0 *B0
#505
b0 *B0
#508
b0 *B0
#511
b0 *B0
#514
b0 *B0
#517
b0 *B0
#521
b0 *B0
#524
b0 *B0
#527
b0 *B0
#530
b0 *B0
#533
b0 *B0
#537
b0 *B0
#540
b0 *B0
#543
b0 *B0
#546
b0 *B0
#549
b0 *B0
#553
b0 *B0
#556
b0 *B0
#559
b0 *B0
#562
b0 *B0
#565
b0 *B0
#569
b0 *B0
#572
b0 *B0
#575
b0 *B0
#578
b0 *B0
#581
b0 *B0
#585
b0 *B0
#588
b0 *B0
#591
b0 *B0
#594
b0 *B0
#597
b0 *B0
#601
b0 *B0
#604
b0 *B0
#607
b0 *B0
#610
b0 *B0
#613
b0 *B0
#617
b0 *B0
#620
b0 *B0
#623
b0 *B0
#626
b0 *B0
#629
b0 *B0
#633
b0 *B0
#636
b0 *B0
#639
b0 *B0
#642
b0 *B0
#645
b0 *B0
#649
b0 *B0
#652
b0 *B0
#655
b0 *B0
#658
b0 *B0
#661
b0 *B0
#665
b0 *B0
#668
b0 *B0
#671
b0 *B0
#674
b0 *B0
#677
b0 *B0
#681
b0 *B0
#684
b0 *B0
#687
b0 *B0
#690
b0 *B0
#693
b0 *B0
#697
b0 *B0
#700
b0 *B0
#703
b0 *B0
#706
b0 *B0
#709
b0 *B0
#713
b0 *B0
#716
b0 *B0
#719
b0 *B0
#722
b0 *B0
#725
b0 *B0
#729
b0 *B0
#732
b0 *B0
#735
b0 *B0
#738
b0 *B0
#741
b0 *B0
#745
b0 *B0
#748
b0 *B0
#751
b0 *B0
#754
b0 *B0
#757
b0 *B0
#761
b0 *B0
#764
b0 *B0
#767
b0 *B0
#770
b0 *B0
#773
b0 *B0
#777
b0 *B0
#780
b0 *B0
#783
b0 *B0
#786
b0 *B0
#789
b0 *B0
#793
b0 *B0
#796
b0 *B0
#799
b0 *B0
#802
b0 *B0
#805
b0 *B0
#809
b0 *B0
#812
b0 *B0
#815
b0 *B0
#818
b0 *B0
#821
b0 *B0
#825
b0 *B0
#828
b0 *B0
#831
b0 *B0
#834
b0 *B0
#837
b0 *B0
#841
b0 *B0
#844
b0 *B0
#847
b0 *B0
#850
b0 *B0
#853
b0 *B0
#857
b0 *B0
#860
b0 *B0
#863
b0 *B0
#866
b0 *B0
#869
b0 *B0
#873
b0 *B0
#876
b0 *B0
#879
b0 *B0
#882
b0 *B0
#885
b0 *B0
#889
b0 *B0
#892
b0 *B0
#895
b0 *B0
#898
b0 *B0
#901
b0 *B0
#905
b0 *B0
#908
b0 *B0
#911
b0 *B0
#914
b0 *B0
#917
b0 *B0
#921
b0 *B0
#924
b0 *B0
#927
b0 *B0
#930
b0 *B0
#933
b0 *B0
#937
b0 *B0
#940
b0 *B0
#943
b0 *B0
#946
b0 *B0
#949
b0 *B0
#953
b0 *B0
#956
b0 *B0
#959
b0 *B0
#962
b0 *B0
#965
b0 *B0
#969
b0 *B0
#972
b0 *B0
#975
b0 *B0
#978
b0 *B0
#981
b0 *B0
#985
b0 *B0
#988
b0 *B0
#991
b0 *B0
#994
b0 *B0
#997
b0 *B0
#1001
b0 *B0
#1004
b0 *B0
#1007
b0 *B0
#1010
b0 *B0
#1013
b0 *B0
#1017
b0 *B0
#1020
b0 *B0
#1023
b0 *B0
#1026
b0 *B0
#1029
b0 *B0
#1033
b0 *B0
#1036
b0 *B0
#1039
b0 *B0
#1042
b0 *B0
#1045
b0 *B0
#1049
b0 *B0
#1052
b0 *B0
#1055
b0 *B0
#1058
b0 *B0
#1061
b0 *B0
#1065
b0 *B0
#1068
b0 *B0
#1071
b0 *B0
#1074
b0 *B0
#1077
b0 *B0
#1081
b0 *B0
#1084
b0 *B0
#1087
b0 *B0
#1090
b0 *B0
#1093
b0 *B0
#1097
b0 *B0
#1100
b0 *B0
#1103
b0 *B0
#1106
b0 *B0
#1109
b0 *B0
#1113
b0 *B0
#1116
b0 *B0
#1119
b0 *B0
#1122
b0 *B0
#1125
b0 *B0
#1129
b0 *B0
#1132
b0 *B0
#1135
b0 *B0
#1138
b0 *B0
#1141
b0 *B0
#1145
b0 *B0
#1148
b0 *B0
#1151
b0 *B0
#1154
b0 *B0
#1157
b0 *B0
#1161
b0 *B0
#1164
b0 *B0
#1167
b0 *B0
#1170
b0 *B0
#1173
b0 *B0
#1177
b0 *B0
#1180
b0 *B0
#1183
b0 *B0
#1186
b0 *B0
#1189
b0 *B0
#1193
b0 *B0
#1196
b0 *B0
#1199
b0 *B0
#1202
b0 *B0
#1205
b0 *B0
#1209
b0 *B0
#1212
b0 *B0
#1215
b0 *B0
#1218
b0 *B0
#1221
b0 *B0
#1225
b0 *B0
#1228
b0 *B0
#1231
b0 *B0
#1234
b0 *B0
#1237
b0 *B0
#1241
b0 *B0
#1244
b0 *B0
#1247
b0 *B0
#1250
b0 *B0
#1253
b0 *B0
#1257
b0 *B0
#1260
b0 *B0
#1263
b0 *B0
#1266
b0 *B0
#1269
b0 *B0
#1273
b0 *B0
#1276
b0 *B0
#1279
b0 *B0
#1282
b0 *B0
#1285
b0 *B0
#1289
b0 *B0
#1292
b0 *B0
#1295
b0 *B0
#1298
b0 *B0
#1301
b0 *B0
#1305
b0 *B0
#1308
b0 *B0
#1311
b0 *B0
#1314
b0 *B0
#1317
b0 *B0
#1321
b0 *B0
#1324
b0 *B0
#1327
b0 *B0
#1330
b0 *B0
#1333
b0 *B0
#1337
b0 *B0
#1340
b0 *B0
#1343
b0 *B0
#1346
b0 *B0
#1349
b0 *B0
#1353
b0 *B0
#1356
b0 *B0
#1359
b0 *B0
#1362
b0 *B0
#1365
b0 *B0
#1369
b0 *B0
#1372
b0 *B0
#1375
b0 *B0
#1378
b0 *B0
#1381
b0 *B0
#1385
b0 *B0
#1388
b0 *B0
#1391
b0 *B0
#1394
b0 *B0
#1397
b0 *B0
#1401
b0 *B0
#1404
b0 *B0
#1407
b0 *B0
#1410
b0 *B0
#1413
b0 *B0
#1417
b0 *B0
#1420
b0 *B0
#1423
b0 *B0
#1426
b0 *B0
#1429
b0 *B0
#1433
b0 *B0
#1436
b0 *B0
#1439
b0 *B0
#1442
b0 *B0
#1445
b0 *B0
#1449
b0 *B0
#1452
b0 *B0
#1455
b0 *B0
#1458
b0 *B0
#1461
b0 *B0
#1465
b0 *B0
#1468
b0 *B0
#1471
b0 *B0
#1474
b0 *B0
#1477
b0 *B0
#1481
b0 *B0
#1484
b0 *B0
#1487
b0 *B0
#1490
b0 *B0
#1493
b0 *B0
#1497
b0 *B0
#1500
b0 *B0
#1503
b0 *B0
#1506
b0 *B0
#1509
b0 *B0
#1513
b0 *B0
#1516
b0 *B0
#1519
b0 *B0
#1522
b0 *B0
#1525
b0 *B0
#1529
b0 *B0
#1532
b0 *B0
#1535
b0 *B0
#1538
b0 *B0
#1541
b0 *B0
#1545
b0 *B0
#1548
b0 *B0
#1551
b0 *B0
#1554
b0 *B0
#1557
b0 *B0
#1561
b0 *B0
#1564
b0 *B0
#1567
b0 *B0
#1570
b0 *B0
#1573
b0 *B0
#1577
b0 *B0
#1580
b0 *B0
#1583
b0 *B0
#1586
b0 *B0
#1589
b0 *B0
#1593
b0 *B0
#1596
b0 *B0
#1599
b0 *B0
#1602
b0 *B0
#1605
b0 *B0
#1609
b0 *B0
#1612
b0 *B0
#1615
b0 *B0
#1618
b0 *B0
#1621
b0 *B0
#1625
b0 *B0
#1628
b0 *B0
#1631
b0 *B0
#1634
b0 *B0
#1637
b0 *B0
#1641
b0 *B0
#1644
b0 *B0
#1647
b0 *B0
#1650
b0 *B0
#1653
b0 *B0
#1657
b0 *B0
#1660
b0 *B0
#1663
b0 *B0
#1666
b0 *B0
#1669
b0 *B0
#1673
b0 *B0
#1676
b0 *B0
#1679
b0 *B0
#1682
b0 *B0
#1685
b0 *B0
#1689
b0 *B0
#1692
b0 *B0
#1695
b0 *B0
#1698
b0 *B0
#1701
b0 *B0
#1705
b0 *B0
#1708
b0 *B0
#1711
b0 *B0
#1714
b0 *B0
#1717
b0 *B0
#1721
b0 *B0
#1724
b0 *B0
#1727
b0 *B0
#1730
b0 *B0
#1733
b0 *B0
#1737
b0 *B0
#1740
b0 *B0
#1743
b0 *B0
#1746
b0 *B0
#1749
b0 *B0
#1753
b0 *B0
#1756
b0 *B0
#1759
b0 *B0
#1762
b0 *B0
#1765
b0 *B0
#1769
b0 *B0
#1772
b0 *B0
#1775
b0 *B0
#1778
b0 *B0
#1781
b0 *B0
#1785
b0 *B0
#1788
b0 *B0
#1791
b0 *B0
#1794
b0 *B0
#1797
b0 *B0
#1801
b0 *B0
#1804
b0 *B0
#1807
b0 *B0
#1810
b0 *B0
#1813
b0 *B0
#1817
b0 *B0
#1820
b0 *B0
#1823
b0 *B0
#1826
b0 *B0
#1829
b0 *B0
#1833
b0 *B0
#1836
b0 *B0
#1839
b0 *B0
#1842
b0 *B0
#1845
b0 *B0
#1849
b0 *B0
#1852
b0 *B0
#1855
b0 *B0
#1858
b0 *B0
#1861
b0 *B0
#1865
b0 *B0
#1868
b0 *B0
#1871
b0 *B0
#1874
b0 *B0
#1877
b0 *B0
#1881
b0 *B0
#1884
b0 *B0
#1887
b0 *B0
#1890
b0 *B0
#1893
b0 *B0
#1897
b0 *B0
#1900
b0 *B0
#1903
b0 *B0
#1906
b0 *B0
#1909
b0 *B0
#1913
b0 *B0
#1916
b0 *B0
#1919
b0 *B0
#1922
b0 *B0
#1925
b0 *B0
#1929
b0 *B0
#1932
b0 *B0
#1935
b0 *B0
#1938
b0 *B0
#1941
b0 *B0
#1945
b0 *B0
#1948
b0 *B0
#1951
b0 *B0
#1954
b0 *B0
#1957
b0 *B0
#1961
b0 *B0
#1964
b0 *B0
#1967
b0 *B0
#1970
b0 *B0
#1973
b0 *B0
#1977
b0 *B0
#1980
b0 *B0
#1983
b0 *B0
#1986
b0 *B0
#1989
b0 *B0
#1993
b0 *B0
#1996
b0 *B0
#1999
b0 *B0
#2002
b0 *B0
#2005
b0 *B0
#2009
b0 *B0
#2012
b0 *B0
#2015
b0 *B0
#2018
b0 *B0
#2021
b0 *B0
#2025
b0 *B0
#2028
b0 *B0
#2031
b0 *B0
#2034
b0 *B0
#2037
b0 *B0
#2041
b0 *B0
#2044
b0 *B0
#2047
b0 *B0
#2050
b0 *B0
#2053
b0 *B0
#2057
b0 *B0
#2060
b0 *B0
#2063
b0 *B0
#2066
b0 *B0
#2069
b0 *B0
#2073
b0 *B0
#2076
b0 *B0
#2079
b0 *B0
#2082
b0 *B0
#2085
b0 *B0
#2089
b0 *B0
#2092
b0 *B0
#2095
b0 *B0
#2098
b0 *B0
#2101
b0 *B0
#2105
b0 *B0
#2108
b0 *B0
#2111
b0 *B0
#2114
b0 *B0
#2117
b0 *B0
#2121
b0 *B0
#2124
b0 *B0
#2127
b0 *B0
#2130
b0 *B0
#2133
b0 *B0
#2137
b0 *B0
#2140
b0 *B0
#2143
b0 *B0
#2146
b0 *B0
#2149
b0 *B0
#2153
b0 *B0
#2156
b0 *B0
#2159
b0 *B0
#2162
b0 *B0
#2165
b0 *B0
#2169
b0 *B0
#2172
b0 *B0
#2175
b0 *B0
#2178
b0 *B0
#2181
b0 *B0
#2185
b0 *B0
#2188
b0 *B0
#2191
b0 *B0
#2194
b0 *B0
#2197
b0 *B0
#2201
b0 *B0
#2204
b0 *B0
#2207
b0 *B0
#2210
b0 *B0
#2213
b0 *B0
#2217
b0 *B0
#2220
b0 *B0
#2223
b0 *B0
#2226
b0 *B0
#2229
b0 *B0
#2233
b0 *B0
#2236
b0 *B0
#2239
b0 *B0
#2242
b0 *B0
#2245
b0 *B0
#2249
b0 *B0
#2252
b0 *B0
#2255
b0 *B0
#2258
b0 *B0
#2261
b0 *B0
#2265
b0 *B0
#2268
b0 *B0
#2271
b0 *B0
#2274
b0 *B0
#2277
b0 *B0
#2281
b0 *B0
#2284
b0 *B0
#2287
b0 *B0
#2290
b0 *B0
#2293
b0 *B0
#2297
b0 *B0
#2300
b0 *B0
#2303
b0 *B0
#2306
b0 *B0
#2309
b0 *B0
#2313
b0 *B0
#2316
b0 *B0
#2319
b0 *B0
#2322
b0 *B0
#2325
b0 *B0
#2329
b0 *B0
#2332
b0 *B0
#2335
b0 *B0
#2338
b0 *B0
#2341
b0 *B0
#2345
b0 *B0
#2348
b0 *B0
#2351
b0 *B0
#2354
b0 *B0
#2357
b0 *B0
#2361
b0 *B0
#2364
b0 *B0
#2367
b0 *B0
#2370
b0 *B0
#2373
b0 *B0
#2377
b0 *B0
#2380
b0 *B0
#2383
b0 *B0
#2386
b0 *B0
#2389
b0 *B0
#2393
b0 *B0
#2396
b0 *B0
#2399
b0 *B0
#2402
b0 *B0
#2405
b0 *B0
#2409
b0 *B0
#2412
b0 *B0
#2415
b0 *B0
#2418
b0 *B0
#2421
b0 *B0
#2425
b0 *B0
#2428
b0 *B0
#2431
b0 *B0
#2434
b0 *B0
#2437
b0 *B0
#2441
b0 *B0
#2444
b0 *B0
#2447
b0 *B0
#2450
b0 *B0
#2453
b0 *B0
#2457
b0 *B0
#2460
b0 *B0
#2463
b0 *B0
#2466
b0 *B0
#2469
b0 *B0
#2473
b0 *B0
#2476
b0 *B0
#2479
b0 *B0
#2482
b0 *B0
#2485
b0 *B0
#2489
b0 *B0
#2492
b0 *B0
#2495
b0 *B0
#2498
b0 *B0
#2501
b0 *B0
#2505
b0 *B0
#2508
b0 *B0
#2511
b0 *B0
#2514
b0 *B0
#2517
b0 *B0
#2521
b0 *B0
#2524
b0 *B0
#2527
b0 *B0
#2530
b0 *B0
#2533
b0 *B0
#2537
b0 *B0
#2540
b0 *B0
#2543
b0 *B0
#2546
b0 *B0
#2549
b0 *B0
#2553
b0 *B0
#2556
b0 *B0
#2559
b0 *B0
#2562
b0 *B0
#2565
b0 *B0
#2569
b0 *B0
#2572
b0 *B0
#2575
b0 *B0
#2578
b0 *B0
#2581
b0 *B0
#2585
b0 *B0
#2588
b0 *B0
#2591
b0 *B0
#2594
b0 *B0
#2597
b0 *B0
#2601
b0 *B0
#2604
b0 *B0
#2607
b0 *B0
#2610
b0 *B0
#2613
b0 *B0
#2617
b0 *B0
#2620
b0 *B0
#2623
b0 *B0
#2626
b0 *B0
#2629
b0 *B0
#2633
b0 *B0
#2636
b0 *B0
#2639
b0 *B0
#2642
b0 *B0
#2645
b0 *B0
#2649
b0 *B0
#2652
b0 *B0
#2655
b0 *B0
#2658
b0 *B0
#2661
b0 *B0
#2665
b0 *B0
#2668
b0 *B0
#2671
b0 *B0
#2674
b0 *B0
#2677
b0 *B0
#2681
b0 *B0
#2684
b0 *B0
#2687
b0 *B0
#2690
b0 *B0
#2693
b0 *B0
#2697
b0 *B0
#2700
b0 *B0
#2703
b0 *B0
#2706
b0 *B0
#2709
b0 *B0
#2713
b0 *B0
#2716
b0 *B0
#2719
b0 *B0
#2722
b0 *B0
#2725
b0 *B0
#2729
b0 *B0
#2732
b0 *B0
#2735
b0 *B0
#2738
b0 *B0
#2741
b0 *B0
#2745
b0 *B0
#2748
b0 *B0
#2751
b0 *B0
#2754
b0 *B0
#2757
b0 *B0
#2761
b0 *B0
#2764
b0 *B0
#2767
b0 *B0
#2770
b0 *B0
#2773
b0 *B0
#2777
b0 *B0
#2780
b0 *B0
#2783
b0 *B0
#2786
b0 *B0
#2789
b0 *B0
#2793
b0 *B0
#2796
b0 *B0
#2799
b0 *B0
#2802
b0 *B0
#2805
b0 *B0
#2809
b0 *B0
#2812
b0 *B0
#2815
b0 *B0
#2818
b0 *B0
#2821
b0 *B0
#2825
b0 *B0
#2828
b0 *B0
#2831
b0 *B0
#2834
b0 *B0
#2837
b0 *B0
#2841
b0 *B0
#2844
b0 *B0
#2847
b0 *B0
#2850
b0 *B0
#2853
b0 *B0
#2857
b0 *B0
#2860
b0 *B0
#2863
b0 *B0
#2866
b0 *B0
#2869
b0 *B0
#2873
b0 *B0
#2876
b0 *B0
#2879
b0 *B0
#2882
b0 *B0
#2885
b0 *B0
#2889
b0 *B0
#2892
b0 *B0
#2895
b0 *B0
#2898
b0 *B0
#2901
b0 *B0
#2905
b0 *B0
#2908
b0 *B0
#2911
b0 *B0
#2914
b0 *B0
#2917
b0 *B0
#2921
b0 *B0
#2924
b0 *B0
#2927
b0 *B0
#2930
b0 *B0
#2933
b0 *B0
#2937
b0 *B0
#2940
b0 *B0
#2943
b0 *B0
#2946
b0 *B0
#2949
b0 *B0
#2953
b0 *B0
#2956
b0 *B0
#2959
b0 *B0
#2962
b0 *B0
#2965
b0 *B0
#2969
b0 *B0
#2972
b0 *B0
#2975
b0 *B0
#2978
b0 *B0
#2981
b0 *B0
#2985
b0 *B0
#2988
b0 *B0
#2991
b0 *B0
#2994
b0 *B0
#2997
b0 *B0
#3001
b0 *B0
#3004
b0 *B0
#3007
b0 *B0
#3010
b0 *B0
#3013
b0 *B0
#3017
b0 *B0
#3020
b0 *B0
#3023
b0 *B0
#3026
b0 *B0
#3029
b0 *B0
#3033
b0 *B0
#3036
b0 *B0
#3039
b0 *B0
#3042
b0 *B0
#3045
b0 *B0
#3049
b0 *B0
#3052
b0 *B0
#3055
b0 *B0
#3058
b0 *B0
#3061
b0 *B0
#3065
b0 *B0
#3068
b0 *B0
#3071
b0 *B0
#3074
b0 *B0
#3077
b0 *B0
#3081
b0 *B0
#3084
b0 *B0
#3087
b0 *B0
#3090
b0 *B0
#3093
b0 *B0
#3097
b0 *B0
#3100
b0 *B0
#3103
b0 *B0
#3106
b0 *B0
#3109
b0 *B0
#3113
b0 *B0
#3116
b0 *B0
#3119
b0 *B0
#3122
b0 *B0
#3125
b0 *B0
#3129
b0 *B0
#3132
b0 *B0
#3135
b0 *B0
#3138
b0 *B0
#3141
b0 *B0
#3145
b0 *B0
#3148
b0 *B0
#3151
b0 *B0
#3154
b0 *B0
#3157
b0 *B0
#3161
b0 *B0
#3164
b0 *B0
#3167
b0 *B0
#3170
b0 *B0
#3173
b0 *B0
#3177
b0 *B0
#3180
b0 *B0
#3183
b0 *B0
#3186
b0 *B0
#3189
b0 *B0
#3193
b0 *B0
#3196
b0 *B0
#3199
b0 *B0
#3202
b0 *B0
#3205
b0 *B0
#3209
b0 *B0
#3212
b0 *B0
#3215
b0 *B0
#3218
b0 *B0
#3221
b0 *B0
#3225
b0 *B0
#3228
b0 *B0
#3231
b0 *B0
#3234
b0 *B0
#3237
b0 *B0
#3241
b0 *B0
#3244
b0 *B0
#3247
b0 *B0
#3250
b0 *B0
#3253
b0 *B0
#3257
b0 *B0
#3260
b0 *B0
#3263
b0 *B0
#3266
b0 *B0
#3269
b0 *B0
#3273
b0 *B0
#3276
b0 *B0
#3279
b0 *B0
#3282
b0 *B0
#3285
b0 *B0
#3289
b0 *B0
#3292
b0 *B0
#3295
b0 *B0
#3298
b0 *B0
#3301
b0 *B0
#3305
b0 *B0
#3308
b0 *B0
#3311
b0 *B0
#3314
b0 *B0
#3317
b0 *B0
#3321
b0 *B0
#3324
b0 *B0
#3327
b0 *B0
#3330
b0 *B0
#3333
b0 *B0
#3337
b0 *B0
#3340
b0 *B0
#3343
b0 *B0
#3346
b0 *B0
#3349
b0 *B0
#3353
b0 *B0
#3356
b0 *B0
#3359
b0 *B0
#3362
b0 *B0
#3365
b0 *B0
#3369
b0 *B0
#3372
b0 *B0
#3375
b0 *B0
#3378
b0 *B0
#3381
b0 *B0
#3385
b0 *B0
#3388
b0 *B0
#3391
b0 *B0
#3394
b0 *B0
#3397
b0 *B0
#3401
b0 *B0
#3404
b0 *B0
#3407
b0 *B0
#3410
b0 *B0
#3413
b0 *B0
#3417
b0 *B0
#3420
b0 *B0
#3423
b0 *B0
#3426
b0 *B0
#3429
b0 *B0
#3433
b0 *B0
#3436
b0 *B0
#3439
b0 *B0
#3442
b0 *B0
#3445
b0 *B0
#3449
b0 *B0
#3452
b0 *B0
#3455
b0 *B0
#3458
b0 *B0
#3461
b0 *B0
#3465
b0 *B0
#3468
b0 *B0
#3471
b0 *B0
#3474
b0 *B0
#3477
b0 *B0
#3481
b0 *B0
#3484
b0 *B0
#3487
b0 *B0
#3490
b0 *B0
#3493
b0 *B0
#3497
b0 *B0
#3500
b0 *B0
#3503
b0 *B0
#3506
b0 *B0
#3509
b0 *B0
#3513
b0 *B0
#3516
b0 *B0
#3519
b0 *B0
#3522
b0 *B0
#3525
b0 *B0
#3529
b0 *B0
#3532
b0 *B0
#3535
b0 *B0
#3538
b0 *B0
#3541
b0 *B0
#3545
b0 *B0
#3548
b0 *B0
#3551
b0 *B0
#3554
b0 *B0
#3557
b0 *B0
#3561
b0 *B0
#3564
b0 *B0
#3567
b0 *B0
#3570
b0 *B0
#3573
b0 *B0
#3577
b0 *B0
#3580
b0 *B0
#3583
b0 *B0
#3586
b0 *B0
#3589
b0 *B0
#3593
b0 *B0
#3596
b0 *B0
#3599
b0 *B0
#3602
b0 *B0
#3605
b0 *B0
#3609
b0 *B0
#3612
b0 *B0
#3615
b0 *B0
#3618
b0 *B0
#3621
b0 *B0
#3625
b0 *B0
#3628
b0 *B0
#3631
b0 *B0
#3634
b0 *B0
#3637
b0 *B0
#3641
b0 *B0
#3644
b0 *B0
#3647
b0 *B0
#3650
b0 *B0
#3653
b0 *B0
#3657
b0 *B0
#3660
b0 *B0
#3663
b0 *B0
#3666
b0 *B0
#3669
b0 *B0
#3673
b0 *B0
#3676
b0 *B0
#3679
b0 *B0
#3682
b0 *B0
#3685
b0 *B0
#3689
b0 *B0
#3692
b0 *B0
#3695
b0 *B0
#3698
b0 *B0
#3701
b0 *B0
#3705
b0 *B0
#3708
b0 *B0
#3711
b0 *B0
#3714
b0 *B0
#3717
b0 *B0
#3721
b0 *B0
#3724
b0 *B0
#3727
b0 *B0
#3730
b0 *B0
#3733
b0 *B0
#3737
b0 *B0
#3740
b0 *B0
#3743
b0 *B0
#3746
b0 *B0
#3749
b0 *B0
#3750
b1 *A0
#3750
b1 *A0
#3754
b0 *B0
#3758
b0 *B0
#3763
b0 *B0
#3767
b0 *B0
#3771
b0 *B0
#3776
b0 *B0
#3780
b0 *B0
#3785
b0 *B0
#3789
b0 *B0
#3793
b0 *B0
#3798
b0 *B0
#3802
b0 *B0
#3807
b0 *B0
#3811
b0 *B0
#3815
b0 *B0
#3820
b0 *B0
#3824
b0 *B0
#3829
b0 *B0
#3833
b0 *B0
#3837
b0 *B0
#3842
b0 *B0
#3846
b0 *B0
#3851
b0 *B0
#3855
b0 *B0
#3859
b0 *B0
#3864
b0 *B0
#3868
b0 *B0
#3873
b0 *B0
#3877
b0 *B0
#3881
b0 *B0
#3886
b0 *B0
#3890
b0 *B0
#3895
b0 *B0
#3899
b0 *B0
#3903
b0 *B0
#3908
b0 *B0
#3912
b0 *B0
#3917
b0 *B0
#3921
b0 *B0
#3925
b0 *B0
#3930
b0 *B0
#3934
b0 *B0
#3939
b0 *B0
#3943
b0 *B0
#3947
b0 *B0
#3952
b0 *B0
#3956
b0 *B0
#3961
b0 *B0
#3965
b0 *B0
#3969
b0 *B0
#3974
b0 *B0
#3978
b0 *B0
#3983
b0 *B0
#3987
b0 *B0
#3991
b0 *B0
#3996
b0 *B0
#4000
b0 *B0
#4005
b0 *B0
#4009
b0 *B0
#4013
b0 *B0
#4018
b0 *B0
#4022
b0 *B0
#4027
b0 *B0
#4031
b0 *B0
#4035
b0 *B0
#4040
b0 *B0
#4044
b0 *B0
#4049
b0 *B0
#4053
b0 *B0
#4057
b0 *B0
#4062
b0 *B0
#4066
b0 *B0
#4071
b0 *B0
#4075
b0 *B0
#4079
b0 *B0
#4084
b0 *B0
#4088
b0 *B0
#4093
b0 *B0
#4097
b0 *B0
#4101
b0 *B0
#4106
b0 *B0
#4110
b0 *B0
#4115
b0 *B0
#4119
b0 *B0
#4123
b0 *B0
#4128
b0 *B0
#4132
b0 *B0
#4137
b0 *B0
#4141
b0 *B0
#4145
b0 *B0
#4150
b0 *B0
#4154
b0 *B0
#4159
b0 *B0
#4163
b0 *B0
#4167
b0 *B0
#4172
b0 *B0
#4176
b0 *B0
#4181
b0 *B0
#4185
b0 *B0
#4189
b0 *B0
#4194
b0 *B0
#4198
b0 *B0
#4203
b0 *B0
#4207
b0 *B0
#4211
b0 *B0
#4216
b0 *B0
#4220
b0 *B0
#4225
b0 *B0
#4229
b0 *B0
#4233
b0 *B0
#4238
b0 *B0
#4242
b0 *B0
#4247
b0 *B0
#4251
b0 *B0
#4255
b0 *B0
#4260
b0 *B0
#4264
b0 *B0
#4269
b0 *B0
#4273
b0 *B0
#4277
b0 *B0
#4282
b0 *B0
#4286
b0 *B0
#4291
b0 *B0
#4295
b0 *B0
#4299
b0 *B0
#4304
b0 *B0
#4308
b0 *B0
#4313
b0 *B0
#4317
b0 *B0
#4321
b0 *B0
#4326
b0 *B0
#4330
b0 *B0
#4335
b0 *B0
#4339
b0 *B0
#4343
b0 *B0
#4348
b0 *B0
#4352
b0 *B0
#4357
b0 *B0
#4361
b0 *B0
#4365
b0 *B0
#4370
b0 *B0
#4374
b0 *B0
#4379
b0 *B0
#4383
b0 *B0
#4387
b0 *B0
#4392
b0 *B0
#4396
b0 *B0
#4400
b1 *A1
#4400
b1 *A1
#4401
b0 *B0
#4404
b1 *B0
#4408
b1 *B0
#4411
b1 *B0
#4415
b1 *B0
#4418
b1 *B0
#4421
b1 *B0
#4425
b1 *B0
#4428
b1 *B0
#4432
b1 *B0
#4435
b1 *B0
#4438
b1 *B0
#4442
b1 *B0
#4445
b1 *B0
#4449
b1 *B0
#4452
b1 *B0
#4455
b1 *B0
#4459
b1 *B0
#4462
b1 *B0
#4466
b1 *B0
#4469
b1 *B0
