trsm/Diagrama Tempo Teste 1.vcd
$date
	03/17/17 21:48:27
$end
$version
	RIMS 2.7
$end
$timescale
	1 ms
$end
$scope module RIMS $end
$var wire 1 *TMR TIMER_ISR $end
$var wire 1 *A0 A0 $end
$var wire 1 *A1 A1 $end
$var wire 1 *A2 A2 $end
$var wire 1 *A3 A3 $end
$var wire 1 *A4 A4 $end
$var wire 1 *A5 A5 $end
$var wire 1 *A6 A6 $end
$var wire 1 *A7 A7 $end
$var wire 1 *B0 B0 $end
$var wire 1 *B1 B1 $end
$var wire 1 *B2 B2 $end
$var wire 1 *B3 B3 $end
$var wire 1 *B4 B4 $end
$var wire 1 *B5 B5 $end
$var wire 1 *B6 B6 $end
$var wire 1 *B7 B7 $end
$upscope $end
$enddefinitions $end

#0
$dumpvars
b0 *TMR
b0 *A0
b0 *A1
b0 *A2
b0 *A3
b0 *A4
b0 *A5
b0 *A6
b0 *A7
b0 *B0
b0 *B1
b0 *B2
b0 *B3
b0 *B4
b0 *B5
b0 *B6
b0 *B7
$end
#4
b0 *B0
#6
b0 *B0
#8
b0 *B0
#9
b0 *B0
#11
b0 *B0
#13
b0 *B0
#15
b0 *B0
#17
b0 *B0
#18
b0 *B0
#20
b0 *B0
#22
b0 *B0
#24
b0 *B0
#26
b0 *B0
#27
b0 *B0
#29
b0 *B0
#31
b0 *B0
#33
b0 *B0
#35
b0 *B0
#36
b0 *B0
#38
b0 *B0
#40
b0 *B0
#42
b0 *B0
#44
b0 *B0
#45
b0 *B0
#47
b0 *B0
#49
b0 *B0
#51
b0 *B0
#53
b0 *B0
#54
b0 *B0
#56
b0 *B0
#58
b0 *B0
#60
b0 *B0
#62
b0 *B0
#63
b0 *B0
#65
b0 *B0
#67
b0 *B0
#69
b0 *B0
#71
b0 *B0
#72
b0 *B0
#74
b0 *B0
#76
b0 *B0
#78
b0 *B0
#80
b0 *B0
#81
b0 *B0
#83
b0 *B0
#85
b0 *B0
#87
b0 *B0
#89
b0 *B0
#90
b0 *B0
#92
b0 *B0
#94
b0 *B0
#96
b0 *B0
#98
b0 *B0
#99
b0 *B0
#101
b0 *B0
#103
b0 *B0
#105
b0 *B0
#107
b0 *B0
#108
b0 *B0
#110
b0 *B0
#112
b0 *B0
#114
b0 *B0
#116
b0 *B0
#117
b0 *B0
#119
b0 *B0
#121
b0 *B0
#123
b0 *B0
#125
b0 *B0
#126
b0 *B0
#128
b0 *B0
#130
b0 *B0
#132
b0 *B0
#134
b0 *B0
#135
b0 *B0
#137
b0 *B0
#139
b0 *B0
#141
b0 *B0
#143
b0 *B0
#144
b0 *B0
#146
b0 *B0
#148
b0 *B0
#150
b0 *B0
#152
b0 *B0
#153
b0 *B0
#155
b0 *B0
#157
b0 *B0
#159
b0 *B0
#161
b0 *B0
#162
b0 *B0
#164
b0 *B0
#166
b0 *B0
#168
b0 *B0
#170
b0 *B0
#171
b0 *B0
#173
b0 *B0
#175
b0 *B0
#177
b0 *B0
#179
b0 *B0
#180
b0 *B0
#182
b0 *B0
#184
b0 *B0
#186
b0 *B0
#188
b0 *B0
#189
b0 *B0
#191
b0 *B0
#193
b0 *B0
#195
b0 *B0
#197
b0 *B0
#198
b0 *B0
#200
b0 *B0
#202
b0 *B0
#204
b0 *B0
#206
b0 *B0
#207
b0 *B0
#209
b0 *B0
#211
b0 *B0
#213
b0 *B0
#215
b0 *B0
#216
b0 *B0
#218
b0 *B0
#220
b0 *B0
#222
b0 *B0
#224
b0 *B0
#225
b0 *B0
#227
b0 *B0
#229
b0 *B0
#231
b0 *B0
#233
b0 *B0
#234
b0 *B0
#236
b0 *B0
#238
b0 *B0
#240
b0 *B0
#242
b0 *B0
#243
b0 *B0
#245
b0 *B0
#247
b0 *B0
#249
b0 *B0
#251
b0 *B0
#252
b0 *B0
#254
b0 *B0
#256
b0 *B0
#258
b0 *B0
#260
b0 *B0
#261
b0 *B0
#263
b0 *B0
#265
b0 *B0
#267
b0 *B0
#269
b0 *B0
#270
b0 *B0
#272
b0 *B0
#274
b0 *B0
#276
b0 *B0
#278
b0 *B0
#279
b0 *B0
#281
b0 *B0
#283
b0 *B0
#285
b0 *B0
#287
b0 *B0
#288
b0 *B0
#290
b0 *B0
#292
b0 *B0
#294
b0 *B0
#296
b0 *B0
#297
b0 *B0
#299
b0 *B0
#301
b0 *B0
#303
b0 *B0
#305
b0 *B0
#306
b0 *B0
#308
b0 *B0
#310
b0 *B0
#312
b0 *B0
#314
b0 *B0
#315
b0 *B0
#317
b0 *B0
#319
b0 *B0
#321
b0 *B0
#323
b0 *B0
#324
b0 *B0
#326
b0 *B0
#328
b0 *B0
#330
b0 *B0
#332
b0 *B0
#333
b0 *B0
#335
b0 *B0
#337
b0 *B0
#339
b0 *B0
#341
b0 *B0
#342
b0 *B0
#344
b0 *B0
#346
b0 *B0
#348
b0 *B0
#350
b0 *B0
#351
b0 *B0
#353
b0 *B0
#355
b0 *B0
#357
b0 *B0
#359
b0 *B0
#360
b0 *B0
#362
b0 *B0
#364
b0 *B0
#366
b0 *B0
#368
b0 *B0
#369
b0 *B0
#371
b0 *B0
#373
b0 *B0
#375
b0 *B0
#377
b0 *B0
#378
b0 *B0
#380
b0 *B0
#382
b0 *B0
#384
b0 *B0
#386
b0 *B0
#387
b0 *B0
#389
b0 *B0
#391
b0 *B0
#393
b0 *B0
#395
b0 *B0
#396
b0 *B0
#398
b0 *B0
#400
b0 *B0
#402
b0 *B0
#404
b0 *B0
#405
b0 *B0
#407
b0 *B0
#409
b0 *B0
#411
b0 *B0
#413
b0 *B0
#414
b0 *B0
#416
b0 *B0
#418
b0 *B0
#420
b0 *B0
#422
b0 *B0
#423
b0 *B0
#425
b0 *B0
#427
b0 *B0
#429
b0 *B0
#431
b0 *B0
#432
b0 *B0
#434
b0 *B0
#436
b0 *B0
#438
b0 *B0
#440
b0 *B0
#441
b0 *B0
#443
b0 *B0
#445
b0 *B0
#447
b0 *B0
#449
b0 *B0
#450
b0 *B0
#452
b0 *B0
#454
b0 *B0
#456
b0 *B0
#458
b0 *B0
#459
b0 *B0
#461
b0 *B0
#463
b0 *B0
#465
b0 *B0
#467
b0 *B0
#468
b0 *B0
#470
b0 *B0
#472
b0 *B0
#474
b0 *B0
#476
b0 *B0
#477
b0 *B0
#479
b0 *B0
#481
b0 *B0
#483
b0 *B0
#485
b0 *B0
#486
b0 *B0
#488
b0 *B0
#490
b0 *B0
#492
b0 *B0
#494
b0 *B0
#495
b0 *B0
#497
b0 *B0
#499
b0 *B0
#501
b0 *B0
#503
b0 *B0
#504
b0 *B0
#506
b0 *B0
#508
b0 *B0
#510
b0 *B0
#512
b0 *B0
#513
b0 *B0
#515
b0 *B0
#517
b0 *B0
#519
b0 *B0
#521
b0 *B0
#522
b0 *B0
#524
b0 *B0
#526
b0 *B0
#528
b0 *B0
#530
b0 *B0
#531
b0 *B0
#533
b0 *B0
#535
b0 *B0
#537
b0 *B0
#539
b0 *B0
#540
b0 *B0
#542
b0 *B0
#544
b0 *B0
#546
b0 *B0
#548
b0 *B0
#549
b0 *B0
#551
b0 *B0
#553
b0 *B0
#555
b0 *B0
#557
b0 *B0
#558
b0 *B0
#560
b0 *B0
#562
b0 *B0
#564
b0 *B0
#566
b0 *B0
#567
b0 *B0
#569
b0 *B0
#571
b0 *B0
#573
b0 *B0
#575
b0 *B0
#576
b0 *B0
#578
b0 *B0
#580
b0 *B0
#582
b0 *B0
#584
b0 *B0
#585
b0 *B0
#587
b0 *B0
#589
b0 *B0
#591
b0 *B0
#593
b0 *B0
#594
b0 *B0
#596
b0 *B0
#598
b0 *B0
#600
b0 *B0
#602
b0 *B0
#603
b0 *B0
#605
b0 *B0
#607
b0 *B0
#609
b0 *B0
#611
b0 *B0
#612
b0 *B0
#614
b0 *B0
#616
b0 *B0
#618
b0 *B0
#620
b0 *B0
#621
b0 *B0
#623
b0 *B0
#625
b0 *B0
#627
b0 *B0
#629
b0 *B0
#630
b0 *B0
#632
b0 *B0
#634
b0 *B0
#636
b0 *B0
#638
b0 *B0
#639
b0 *B0
#641
b0 *B0
#643
b0 *B0
#645
b0 *B0
#647
b0 *B0
#648
b0 *B0
#650
b0 *B0
#652
b0 *B0
#654
b0 *B0
#656
b0 *B0
#657
b0 *B0
#659
b0 *B0
#661
b0 *B0
#663
b0 *B0
#665
b0 *B0
#666
b0 *B0
#668
b0 *B0
#670
b0 *B0
#672
b0 *B0
#674
b0 *B0
#675
b0 *B0
#677
b0 *B0
#679
b0 *B0
#681
b0 *B0
#683
b0 *B0
#684
b0 *B0
#686
b0 *B0
#688
b0 *B0
#690
b0 *B0
#692
b0 *B0
#693
b0 *B0
#695
b0 *B0
#697
b0 *B0
#699
b0 *B0
#701
b0 *B0
#702
b0 *B0
#704
b0 *B0
#706
b0 *B0
#708
b0 *B0
#710
b0 *B0
#711
b0 *B0
#713
b0 *B0
#715
b0 *B0
#717
b0 *B0
#719
b0 *B0
#720
b0 *B0
#722
b0 *B0
#724
b0 *B0
#726
b0 *B0
#728
b0 *B0
#729
b0 *B0
#731
b0 *B0
#733
b0 *B0
#735
b0 *B0
#737
b0 *B0
#738
b0 *B0
#740
b0 *B0
#742
b0 *B0
#744
b0 *B0
#746
b0 *B0
#747
b0 *B0
#749
b0 *B0
#751
b0 *B0
#753
b0 *B0
#755
b0 *B0
#756
b0 *B0
#758
b0 *B0
#760
b0 *B0
#762
b0 *B0
#764
b0 *B0
#765
b0 *B0
#767
b0 *B0
#769
b0 *B0
#771
b0 *B0
#773
b0 *B0
#774
b0 *B0
#776
b0 *B0
#778
b0 *B0
#780
b0 *B0
#782
b0 *B0
#783
b0 *B0
#785
b0 *B0
#787
b0 *B0
#789
b0 *B0
#791
b0 *B0
#792
b0 *B0
#794
b0 *B0
#796
b0 *B0
#798
b0 *B0
#800
b0 *B0
#801
b0 *B0
#803
b0 *B0
#805
b0 *B0
#807
b0 *B0
#809
b0 *B0
#810
b0 *B0
#812
b0 *B0
#814
b0 *B0
#816
b0 *B0
#818
b0 *B0
#819
b0 *B0
#821
b0 *B0
#823
b0 *B0
#825
b0 *B0
#827
b0 *B0
#828
b0 *B0
#830
b0 *B0
#832
b0 *B0
#834
b0 *B0
#836
b0 *B0
#837
b0 *B0
#839
b0 *B0
#841
b0 *B0
#843
b0 *B0
#845
b0 *B0
#846
b0 *B0
#848
b0 *B0
#850
b0 *B0
#852
b0 *B0
#854
b0 *B0
#855
b0 *B0
#857
b0 *B0
#859
b0 *B0
#861
b0 *B0
#863
b0 *B0
#864
b0 *B0
#866
b0 *B0
#868
b0 *B0
#870
b0 *B0
#872
b0 *B0
#873
b0 *B0
#875
b0 *B0
#877
b0 *B0
#879
b0 *B0
#881
b0 *B0
#882
b0 *B0
#884
b0 *B0
#886
b0 *B0
#888
b0 *B0
#890
b0 *B0
#891
b0 *B0
#893
b0 *B0
#895
b0 *B0
#897
b0 *B0
#899
b0 *B0
#900
b0 *B0
#902
b0 *B0
#904
b0 *B0
#906
b0 *B0
#908
b0 *B0
#909
b0 *B0
#911
b0 *B0
#913
b0 *B0
#915
b0 *B0
#917
b0 *B0
#918
b0 *B0
#920
b0 *B0
#922
b0 *B0
#924
b0 *B0
#926
b0 *B0
#927
b0 *B0
#929
b0 *B0
#931
b0 *B0
#933
b0 *B0
#935
b0 *B0
#936
b0 *B0
#938
b0 *B0
#940
b0 *B0
#942
b0 *B0
#944
b0 *B0
#945
b0 *B0
#947
b0 *B0
#949
b0 *B0
#951
b0 *B0
#953
b0 *B0
#954
b0 *B0
#956
b0 *B0
#958
b0 *B0
#960
b0 *B0
#962
b0 *B0
#963
b0 *B0
#965
b0 *B0
#967
b0 *B0
#969
b0 *B0
#971
b0 *B0
#972
b0 *B0
#974
b0 *B0
#976
b0 *B0
#978
b0 *B0
#980
b0 *B0
#981
b0 *B0
#983
b0 *B0
#985
b0 *B0
#987
b0 *B0
#989
b0 *B0
#990
b0 *B0
#992
b0 *B0
#994
b0 *B0
#996
b0 *B0
#998
b0 *B0
#999
b0 *B0
#1001
b0 *B0
#1003
b0 *B0
#1005
b0 *B0
#1007
b0 *B0
#1008
b0 *B0
#1010
b0 *B0
#1012
b0 *B0
#1014
b0 *B0
#1016
b0 *B0
#1017
b0 *B0
#1019
b0 *B0
#1021
b0 *B0
#1023
b0 *B0
#1025
b0 *B0
#1026
b0 *B0
#1028
b0 *B0
#1030
b0 *B0
#1032
b0 *B0
#1034
b0 *B0
#1035
b0 *B0
#1037
b0 *B0
#1039
b0 *B0
#1041
b0 *B0
#1043
b0 *B0
#1044
b0 *B0
#1046
b0 *B0
#1048
b0 *B0
#1050
b0 *B0
#1052
b0 *B0
#1053
b0 *B0
#1055
b0 *B0
#1057
b0 *B0
#1059
b0 *B0
#1061
b0 *B0
#1062
b0 *B0
#1064
b0 *B0
#1066
b0 *B0
#1068
b0 *B0
#1070
b0 *B0
#1071
b0 *B0
#1073
b0 *B0
#1075
b0 *B0
#1077
b0 *B0
#1079
b0 *B0
#1080
b0 *B0
#1082
b0 *B0
#1084
b0 *B0
#1086
b0 *B0
#1088
b0 *B0
#1089
b0 *B0
#1091
b0 *B0
#1093
b0 *B0
#1095
b0 *B0
#1097
b0 *B0
#1098
b0 *B0
#1100
b0 *B0
#1102
b0 *B0
#1104
b0 *B0
#1106
b0 *B0
#1107
b0 *B0
#1109
b0 *B0
#1111
b0 *B0
#1113
b0 *B0
#1115
b0 *B0
#1116
b0 *B0
#1118
b0 *B0
#1120
b0 *B0
#1122
b0 *B0
#1124
b0 *B0
#1125
b0 *B0
#1127
b0 *B0
#1129
b0 *B0
#1131
b0 *B0
#1133
b0 *B0
#1134
b0 *B0
#1136
b0 *B0
#1138
b0 *B0
#1140
b0 *B0
#1142
b0 *B0
#1143
b0 *B0
#1145
b0 *B0
#1147
b0 *B0
#1149
b0 *B0
#1151
b0 *B0
#1152
b0 *B0
#1154
b0 *B0
#1156
b0 *B0
#1158
b0 *B0
#1160
b0 *B0
#1161
b0 *B0
#1163
b0 *B0
#1165
b0 *B0
#1167
b0 *B0
#1169
b0 *B0
#1170
b0 *B0
#1172
b0 *B0
#1174
b0 *B0
#1176
b0 *B0
#1178
b0 *B0
#1179
b0 *B0
#1181
b0 *B0
#1183
b0 *B0
#1185
b0 *B0
#1187
b0 *B0
#1188
b0 *B0
#1190
b0 *B0
#1192
b0 *B0
#1194
b0 *B0
#1196
b0 *B0
#1197
b0 *B0
#1199
b0 *B0
#1201
b0 *B0
#1203
b0 *B0
#1205
b0 *B0
#1206
b0 *B0
#1208
b0 *B0
#1210
b0 *B0
#1212
b0 *B0
#1214
b0 *B0
#1215
b0 *B0
#1217
b0 *B0
#1219
b0 *B0
#1221
b0 *B0
#1223
b0 *B0
#1224
b0 *B0
#1226
b0 *B0
#1228
b0 *B0
#1230
b0 *B0
#1232
b0 *B0
#1233
b0 *B0
#1235
b0 *B0
#1237
b0 *B0
#1239
b0 *B0
#1241
b0 *B0
#1242
b0 *B0
#1244
b0 *B0
#1246
b0 *B0
#1248
b0 *B0
#1250
b0 *B0
#1251
b0 *B0
#1253
b0 *B0
#1255
b0 *B0
#1257
b0 *B0
#1259
b0 *B0
#1260
b0 *B0
#1262
b0 *B0
#1264
b0 *B0
#1266
b0 *B0
#1268
b0 *B0
#1269
b0 *B0
#1271
b0 *B0
#1273
b0 *B0
#1275
b0 *B0
#1277
b0 *B0
#1278
b0 *B0
#1280
b0 *B0
#1282
b0 *B0
#1284
b0 *B0
#1286
b0 *B0
#1287
b0 *B0
#1289
b0 *B0
#1291
b0 *B0
#1293
b0 *B0
#1295
b0 *B0
#1296
b0 *B0
#1298
b0 *B0
#1300
b0 *B0
#1302
b0 *B0
#1304
b0 *B0
#1305
b0 *B0
#1307
b0 *B0
#1309
b0 *B0
#1311
b0 *B0
#1313
b0 *B0
#1314
b0 *B0
#1316
b0 *B0
#1318
b0 *B0
#1320
b0 *B0
#1322
b0 *B0
#1323
b0 *B0
#1325
b0 *B0
#1327
b0 *B0
#1329
b0 *B0
#1331
b0 *B0
#1332
b0 *B0
#1334
b0 *B0
#1336
b0 *B0
#1338
b0 *B0
#1340
b0 *B0
#1341
b0 *B0
#1343
b0 *B0
#1345
b0 *B0
#1347
b0 *B0
#1349
b0 *B0
#1350
b0 *B0
#1352
b0 *B0
#1354
b0 *B0
#1356
b0 *B0
#1358
b0 *B0
#1359
b0 *B0
#1361
b0 *B0
#1363
b0 *B0
#1365
b0 *B0
#1367
b0 *B0
#1368
b0 *B0
#1370
b0 *B0
#1372
b0 *B0
#1374
b0 *B0
#1376
b0 *B0
#1377
b0 *B0
#1379
b0 *B0
#1381
b0 *B0
#1383
b0 *B0
#1385
b0 *B0
#1386
b0 *B0
#1388
b0 *B0
#1390
b0 *B0
#1392
b0 *B0
#1394
b0 *B0
#1395
b0 *B0
#1397
b0 *B0
#1399
b0 *B0
#1401
b0 *B0
#1403
b0 *B0
#1404
b0 *B0
#1406
b0 *B0
#1408
b0 *B0
#1410
b0 *B0
#1412
b0 *B0
#1413
b0 *B0
#1415
b0 *B0
#1417
b0 *B0
#1419
b0 *B0
#1421
b0 *B0
#1422
b0 *B0
#1424
b0 *B0
#1426
b0 *B0
#1428
b0 *B0
#1430
b0 *B0
#1431
b0 *B0
#1433
b0 *B0
#1435
b0 *B0
#1437
b0 *B0
#1439
b0 *B0
#1440
b0 *B0
#1442
b0 *B0
#1444
b0 *B0
#1446
b0 *B0
#1448
b0 *B0
#1449
b0 *B0
#1451
b0 *B0
#1453
b0 *B0
#1455
b0 *B0
#1457
b0 *B0
#1458
b0 *B0
#1460
b0 *B0
#1462
b0 *B0
#1464
b0 *B0
#1466
b0 *B0
#1467
b0 *B0
#1469
b0 *B0
#1471
b0 *B0
#1473
b0 *B0
#1475
b0 *B0
#1476
b0 *B0
#1478
b0 *B0
#1480
b0 *B0
#1482
b0 *B0
#1484
b0 *B0
#1485
b0 *B0
#1487
b0 *B0
#1489
b0 *B0
#1491
b0 *B0
#1493
b0 *B0
#1494
b0 *B0
#1496
b0 *B0
#1498
b0 *B0
#1500
b0 *B0
#1502
b0 *B0
#1503
b0 *B0
#1505
b0 *B0
#1507
b0 *B0
#1509
b0 *B0
#1511
b0 *B0
#1512
b0 *B0
#1514
b0 *B0
#1516
b0 *B0
#1518
b0 *B0
#1520
b0 *B0
#1521
b0 *B0
#1523
b0 *B0
#1525
b0 *B0
#1527
b0 *B0
#1529
b0 *B0
#1530
b0 *B0
#1532
b0 *B0
#1534
b0 *B0
#1536
b0 *B0
#1538
b0 *B0
#1539
b0 *B0
#1541
b0 *B0
#1543
b0 *B0
#1545
b0 *B0
#1547
b0 *B0
#1548
b0 *B0
#1550
b0 *B0
#1552
b0 *B0
#1554
b0 *B0
#1556
b0 *B0
#1557
b0 *B0
#1559
b0 *B0
#1561
b0 *B0
#1563
b0 *B0
#1565
b0 *B0
#1566
b0 *B0
#1568
b0 *B0
#1570
b0 *B0
#1572
b0 *B0
#1574
b0 *B0
#1575
b0 *B0
#1577
b0 *B0
#1579
b0 *B0
#1581
b0 *B0
#1583
b0 *B0
#1584
b0 *B0
#1586
b0 *B0
#1588
b0 *B0
#1590
b0 *B0
#1592
b0 *B0
#1593
b0 *B0
#1595
b0 *B0
#1597
b0 *B0
#1599
b0 *B0
#1601
b0 *B0
#1602
b0 *B0
#1604
b0 *B0
#1606
b0 *B0
#1608
b0 *B0
#1610
b0 *B0
#1611
b0 *B0
#1613
b0 *B0
#1615
b0 *B0
#1617
b0 *B0
#1619
b0 *B0
#1620
b0 *B0
#1622
b0 *B0
#1624
b0 *B0
#1626
b0 *B0
#1628
b0 *B0
#1629
b0 *B0
#1631
b0 *B0
#1633
b0 *B0
#1635
b0 *B0
#1637
b0 *B0
#1638
b0 *B0
#1640
b0 *B0
#1642
b0 *B0
#1644
b0 *B0
#1646
b0 *B0
#1647
b0 *B0
#1649
b0 *B0
#1651
b0 *B0
#1653
b0 *B0
#1655
b0 *B0
#1656
b0 *B0
#1658
b0 *B0
#1660
b0 *B0
#1662
b0 *B0
#1664
b0 *B0
#1665
b0 *B0
#1667
b0 *B0
#1669
b0 *B0
#1671
b0 *B0
#1673
b0 *B0
#1674
b0 *B0
#1676
b0 *B0
#1678
b0 *B0
#1680
b0 *B0
#1682
b0 *B0
#1683
b0 *B0
#1685
b0 *B0
#1687
b0 *B0
#1689
b0 *B0
#1691
b0 *B0
#1692
b0 *B0
#1694
b0 *B0
#1696
b0 *B0
#1698
b0 *B0
#1700
b0 *B0
#1701
b0 *B0
#1703
b0 *B0
#1705
b0 *B0
#1707
b0 *B0
#1709
b0 *B0
#1710
b0 *B0
#1712
b0 *B0
#1714
b0 *B0
#1716
b0 *B0
#1718
b0 *B0
#1719
b0 *B0
#1721
b0 *B0
#1723
b0 *B0
#1725
b0 *B0
#1727
b0 *B0
#1728
b0 *B0
#1730
b0 *B0
#1732
b0 *B0
#1734
b0 *B0
#1736
b0 *B0
#1737
b0 *B0
#1739
b0 *B0
#1741
b0 *B0
#1743
b0 *B0
#1745
b0 *B0
#1746
b0 *B0
#1748
b0 *B0
#1750
b0 *B0
#1752
b0 *B0
#1754
b0 *B0
#1755
b0 *B0
#1757
b0 *B0
#1759
b0 *B0
#1761
b0 *B0
#1763
b0 *B0
#1764
b0 *B0
#1766
b0 *B0
#1768
b0 *B0
#1770
b0 *B0
#1772
b0 *B0
#1773
b0 *B0
#1775
b0 *B0
#1777
b0 *B0
#1779
b0 *B0
#1781
b0 *B0
#1782
b0 *B0
#1784
b0 *B0
#1786
b0 *B0
#1788
b0 *B0
#1790
b0 *B0
#1791
b0 *B0
#1793
b0 *B0
#1795
b0 *B0
#1797
b0 *B0
#1799
b0 *B0
#1800
b0 *B0
#1802
b0 *B0
#1804
b0 *B0
#1806
b0 *B0
#1808
b0 *B0
#1809
b0 *B0
#1811
b0 *B0
#1813
b0 *B0
#1815
b0 *B0
#1817
b0 *B0
#1818
b0 *B0
#1820
b0 *B0
#1822
b0 *B0
#1824
b0 *B0
#1826
b0 *B0
#1827
b0 *B0
#1829
b0 *B0
#1831
b0 *B0
#1833
b0 *B0
#1835
b0 *B0
#1836
b0 *B0
#1838
b0 *B0
#1840
b0 *B0
#1842
b0 *B0
#1844
b0 *B0
#1845
b0 *B0
#1847
b0 *B0
#1849
b0 *B0
#1851
b0 *B0
#1853
b0 *B0
#1854
b0 *B0
#1856
b0 *B0
#1858
b0 *B0
#1860
b0 *B0
#1862
b0 *B0
#1863
b0 *B0
#1865
b0 *B0
#1867
b0 *B0
#1869
b0 *B0
#1871
b0 *B0
#1872
b0 *B0
#1874
b0 *B0
#1876
b0 *B0
#1878
b0 *B0
#1880
b0 *B0
#1881
b0 *B0
#1883
b0 *B0
#1885
b0 *B0
#1887
b0 *B0
#1889
b0 *B0
#1890
b0 *B0
#1892
b0 *B0
#1894
b0 *B0
#1896
b0 *B0
#1898
b0 *B0
#1899
b0 *B0
#1901
b0 *B0
#1903
b0 *B0
#1905
b0 *B0
#1907
b0 *B0
#1908
b0 *B0
#1910
b0 *B0
#1912
b0 *B0
#1914
b0 *B0
#1916
b0 *B0
#1917
b0 *B0
#1919
b0 *B0
#1921
b0 *B0
#1923
b0 *B0
#1925
b0 *B0
#1926
b0 *B0
#1928
b0 *B0
#1930
b0 *B0
#1932
b0 *B0
#1934
b0 *B0
#1935
b0 *B0
#1937
b0 *B0
#1939
b0 *B0
#1941
b0 *B0
#1943
b0 *B0
#1944
b0 *B0
#1946
b0 *B0
#1948
b0 *B0
#1950
b0 *B0
#1952
b0 *B0
#1953
b0 *B0
#1955
b0 *B0
#1957
b0 *B0
#1959
b0 *B0
#1961
b0 *B0
#1962
b0 *B0
#1964
b0 *B0
#1966
b0 *B0
#1968
b0 *B0
#1970
b0 *B0
#1971
b0 *B0
#1973
b0 *B0
#1975
b0 *B0
#1977
b0 *B0
#1979
b0 *B0
#1980
b0 *B0
#1982
b0 *B0
#1984
b0 *B0
#1986
b0 *B0
#1988
b0 *B0
#1989
b0 *B0
#1991
b0 *B0
#1993
b0 *B0
#1995
b0 *B0
#1997
b0 *B0
#1998
b0 *B0
#2000
b0 *B0
#2002
b0 *B0
#2004
b0 *B0
#2006
b0 *B0
#2007
b0 *B0
#2009
b0 *B0
#2011
b0 *B0
#2013
b0 *B0
#2015
b0 *B0
#2016
b0 *B0
#2018
b0 *B0
#2020
b0 *B0
#2022
b0 *B0
#2024
b0 *B0
#2025
b0 *B0
#2027
b0 *B0
#2029
b0 *B0
#2031
b0 *B0
#2033
b0 *B0
#2034
b0 *B0
#2036
b0 *B0
#2038
b0 *B0
#2040
b0 *B0
#2042
b0 *B0
#2043
b0 *B0
#2045
b0 *B0
#2047
b0 *B0
#2049
b0 *B0
#2051
b0 *B0
#2052
b0 *B0
#2054
b0 *B0
#2056
b0 *B0
#2058
b0 *B0
#2060
b0 *B0
#2061
b0 *B0
#2063
b0 *B0
#2065
b0 *B0
#2067
b0 *B0
#2069
b0 *B0
#2070
b0 *B0
#2072
b0 *B0
#2074
b0 *B0
#2076
b0 *B0
#2078
b0 *B0
#2079
b0 *B0
#2081
b0 *B0
#2083
b0 *B0
#2085
b0 *B0
#2087
b0 *B0
#2088
b0 *B0
#2090
b0 *B0
#2092
b0 *B0
#2094
b0 *B0
#2096
b0 *B0
#2097
b0 *B0
#2099
b0 *B0
#2101
b0 *B0
#2103
b0 *B0
#2105
b0 *B0
#2106
b0 *B0
#2108
b0 *B0
#2110
b0 *B0
#2112
b0 *B0
#2114
b0 *B0
#2115
b0 *B0
#2117
b0 *B0
#2119
b0 *B0
#2121
b0 *B0
#2123
b0 *B0
#2124
b0 *B0
#2126
b0 *B0
#2128
b0 *B0
#2130
b0 *B0
#2132
b0 *B0
#2133
b0 *B0
#2135
b0 *B0
#2137
b0 *B0
#2139
b0 *B0
#2141
b0 *B0
#2142
b0 *B0
#2144
b0 *B0
#2146
b0 *B0
#2148
b0 *B0
#2150
b0 *B0
#2151
b0 *B0
#2153
b0 *B0
#2155
b0 *B0
#2157
b0 *B0
#2159
b0 *B0
#2160
b0 *B0
#2162
b0 *B0
#2164
b0 *B0
#2166
b0 *B0
#2168
b0 *B0
#2169
b0 *B0
#2171
b0 *B0
#2173
b0 *B0
#2175
b0 *B0
#2177
b0 *B0
#2178
b0 *B0
#2180
b0 *B0
#2182
b0 *B0
#2184
b0 *B0
#2186
b0 *B0
#2187
b0 *B0
#2189
b0 *B0
#2191
b0 *B0
#2193
b0 *B0
#2195
b0 *B0
#2196
b0 *B0
#2198
b0 *B0
#2200
b0 *B0
#2202
b0 *B0
#2204
b0 *B0
#2205
b0 *B0
#2207
b0 *B0
#2209
b0 *B0
#2211
b0 *B0
#2213
b0 *B0
#2214
b0 *B0
#2216
b0 *B0
#2218
b0 *B0
#2220
b0 *B0
#2222
b0 *B0
#2223
b0 *B0
#2225
b0 *B0
#2227
b0 *B0
#2229
b0 *B0
#2231
b0 *B0
#2232
b0 *B0
#2234
b0 *B0
#2236
b0 *B0
#2238
b0 *B0
#2240
b0 *B0
#2241
b0 *B0
#2243
b0 *B0
#2245
b0 *B0
#2247
b0 *B0
#2249
b0 *B0
#2250
b0 *B0
#2252
b0 *B0
#2254
b0 *B0
#2256
b0 *B0
#2258
b0 *B0
#2259
b0 *B0
#2261
b0 *B0
#2263
b0 *B0
#2265
b0 *B0
#2267
b0 *B0
#2268
b0 *B0
#2270
b0 *B0
#2272
b0 *B0
#2274
b0 *B0
#2276
b0 *B0
#2277
b0 *B0
#2279
b0 *B0
#2281
b0 *B0
#2283
b0 *B0
#2285
b0 *B0
#2286
b0 *B0
#2288
b0 *B0
#2290
b0 *B0
#2292
b0 *B0
#2294
b0 *B0
#2295
b0 *B0
#2297
b0 *B0
#2299
b0 *B0
#2301
b0 *B0
#2303
b0 *B0
#2304
b0 *B0
#2306
b0 *B0
#2308
b0 *B0
#2310
b0 *B0
#2312
b0 *B0
#2313
b0 *B0
#2315
b0 *B0
#2317
b0 *B0
#2319
b0 *B0
#2321
b0 *B0
#2322
b0 *B0
#2324
b0 *B0
#2326
b0 *B0
#2328
b0 *B0
#2330
b0 *B0
#2331
b0 *B0
#2333
b0 *B0
#2335
b0 *B0
#2337
b0 *B0
#2339
b0 *B0
#2340
b0 *B0
#2342
b0 *B0
#2344
b0 *B0
#2346
b0 *B0
#2348
b0 *B0
#2349
b0 *B0
#2351
b0 *B0
#2353
b0 *B0
#2355
b0 *B0
#2357
b0 *B0
#2358
b0 *B0
#2360
b0 *B0
#2362
b0 *B0
#2364
b0 *B0
#2366
b0 *B0
#2367
b0 *B0
#2369
b0 *B0
#2371
b0 *B0
#2373
b0 *B0
#2375
b0 *B0
#2376
b0 *B0
#2378
b0 *B0
#2380
b0 *B0
#2382
b0 *B0
#2384
b0 *B0
#2385
b0 *B0
#2387
b0 *B0
#2389
b0 *B0
#2391
b0 *B0
#2393
b0 *B0
#2394
b0 *B0
#2396
b0 *B0
#2398
b0 *B0
#2400
b0 *B0
#2402
b0 *B0
#2403
b0 *B0
#2405
b0 *B0
#2407
b0 *B0
#2409
b0 *B0
#2411
b0 *B0
#2412
b0 *B0
#2414
b0 *B0
#2416
b0 *B0
#2418
b0 *B0
#2420
b0 *B0
#2421
b0 *B0
#2423
b0 *B0
#2425
b0 *B0
#2427
b0 *B0
#2429
b0 *B0
#2430
b0 *B0
#2432
b0 *B0
#2434
b0 *B0
#2436
b0 *B0
#2438
b0 *B0
#2439
b0 *B0
#2441
b0 *B0
#2443
b0 *B0
#2445
b0 *B0
#2447
b0 *B0
#2448
b0 *B0
#2450
b0 *B0
#2452
b0 *B0
#2454
b0 *B0
#2456
b0 *B0
#2457
b0 *B0
#2459
b0 *B0
#2461
b0 *B0
